{
  "project_info": {
    "project_number": "87934895439",
    "firebase_url": "https://chatify-ios-app-default-rtdb.firebaseio.com",
    "project_id": "chatify-ios-app",
    "storage_bucket": "chatify-ios-app.appspot.com"
  },
  "client": [
    {
      "client_info": {
        "mobilesdk_app_id": "1:87934895439:android:533b85fc3c99b5a65a713a",
        "android_client_info": {
          "package_name": "com.manuj.chatify"
        }
      },
      "oauth_client": [
        {
          "client_id": "87934895439-h7hcp3ld7d7n2srhaf8aunj28nbjv4f8.apps.googleusercontent.com",
          "client_type": 3
        }
      ],
      "api_key": [
        {
          "current_key": "AIzaSyCy-u8jwYXuc6zuub6cpnwqAf1FNeCLUQw"
        }
      ],
      "services": {
        "appinvite_service": {
          "other_platform_oauth_client": [
            {
              "client_id": "87934895439-h7hcp3ld7d7n2srhaf8aunj28nbjv4f8.apps.googleusercontent.com",
              "client_type": 3
            },
            {
              "client_id": "87934895439-lfp229u47snq0sdli4nqcmju4of0dqt7.apps.googleusercontent.com",
              "client_type": 2,
              "ios_info": {
                "bundle_id": "in.applore.Chatify"
              }
            }
          ]
        }
      }
    }
  ],
  "configuration_version": "1"
}